module gitlab.com/go-cmds/godig

go 1.18

require (
	github.com/cloudflare/odoh-go v1.0.0
	github.com/jessevdk/go-flags v1.5.0
	github.com/lucas-clemente/quic-go v0.29.0
	github.com/miekg/dns v1.1.50
	github.com/sirupsen/logrus v1.9.0
	github.com/stretchr/testify v1.7.2
	golang.org/x/net v0.0.0-20220907135653-1e95f45603a7
	gopkg.in/yaml.v2 v2.4.0
)

require (
	git.schwanenlied.me/yawning/x448.git v0.0.0-20170617130356-01b048fb03d6 // indirect
	github.com/cheekybits/genny v1.0.0 // indirect
	github.com/cisco/go-hpke v0.0.0-20220110164554-aec202176774 // indirect
	github.com/cisco/go-tls-syntax v0.0.0-20200617162716-46b0cfb76b9b // indirect
	github.com/cloudflare/circl v1.2.0 // indirect
	github.com/davecgh/go-spew v1.1.1 // indirect
	github.com/fsnotify/fsnotify v1.5.4 // indirect
	github.com/go-task/slim-sprig v0.0.0-20210107165309-348f09dbbbc0 // indirect
	github.com/golang/mock v1.6.0 // indirect
	github.com/marten-seemann/qtls-go1-16 v0.1.5 // indirect
	github.com/marten-seemann/qtls-go1-17 v0.1.2 // indirect
	github.com/marten-seemann/qtls-go1-18 v0.1.2 // indirect
	github.com/marten-seemann/qtls-go1-19 v0.1.0 // indirect
	github.com/nxadm/tail v1.4.8 // indirect
	github.com/onsi/ginkgo v1.16.5 // indirect
	github.com/pmezard/go-difflib v1.0.0 // indirect
	golang.org/x/crypto v0.0.0-20220829220503-c86fa9a7ed90 // indirect
	golang.org/x/exp v0.0.0-20220907003533-145caa8ea1d0 // indirect
	golang.org/x/mod v0.6.0-dev.0.20220419223038-86c51ed26bb4 // indirect
	golang.org/x/sys v0.0.0-20220907062415-87db552b00fd // indirect
	golang.org/x/tools v0.1.12 // indirect
	gopkg.in/tomb.v1 v1.0.0-20141024135613-dd632973f1e7 // indirect
	gopkg.in/yaml.v3 v3.0.1 // indirect
)
